{ "height":64,
 "layers":[
        {
         "data":[182, 183, 184, 182, 183, 184, 182, 183, 184, 182, 183, 184, 182, 183, 184, 182, 183, 184, 182, 183, 184, 182, 183, 184, 182, 183, 184, 182, 183, 184, 182, 183, 184, 182, 183, 184, 182, 183, 184, 182, 183, 184, 182, 183, 184, 182, 183, 184, 182, 183, 184, 884, 884, 184, 184, 184, 184, 184, 184, 184, 184, 184, 184, 184, 182, 183, 184, 182, 183, 184, 182, 183, 184, 182, 183, 184, 182, 183, 184, 182, 183, 184, 182, 183, 184, 182, 183, 184, 182, 183, 184, 182, 183, 184, 182, 183, 184, 182, 183, 184, 182, 183, 184, 182, 183, 184, 182, 183, 184, 182, 183, 184, 182, 183, 184, 884, 884, 184, 184, 184, 184, 184, 184, 184, 184, 184, 184, 184, 182, 183, 184, 182, 183, 184, 182, 183, 184, 182, 183, 184, 182, 183, 184, 182, 183, 184, 182, 183, 184, 182, 183, 184, 182, 183, 184, 182, 183, 184, 182, 183, 184, 182, 183, 184, 182, 183, 184, 182, 183, 184, 182, 183, 184, 182, 183, 184, 182, 183, 184, 884, 884, 184, 184, 184, 184, 184, 184, 184, 184, 184, 184, 184, 182, 183, 184, 182, 183, 184, 182, 183, 184, 182, 183, 184, 182, 183, 184, 182, 183, 184, 182, 183, 184, 182, 183, 184, 182, 183, 184, 182, 183, 184, 182, 183, 184, 182, 183, 184, 182, 183, 184, 182, 183, 184, 182, 183, 184, 182, 183, 184, 182, 183, 184, 884, 884, 184, 184, 184, 184, 184, 184, 184, 184, 184, 184, 184, 182, 183, 184, 182, 183, 184, 182, 183, 184, 182, 183, 184, 182, 183, 184, 182, 183, 184, 182, 183, 184, 182, 183, 184, 182, 183, 184, 182, 183, 184, 182, 183, 184, 182, 183, 184, 182, 183, 184, 182, 183, 184, 182, 183, 184, 182, 183, 184, 182, 183, 184, 884, 884, 184, 184, 184, 184, 184, 184, 184, 184, 184, 184, 184, 182, 183, 184, 182, 183, 184, 182, 183, 184, 182, 183, 184, 182, 183, 184, 182, 183, 184, 182, 183, 184, 182, 183, 184, 182, 183, 184, 182, 183, 184, 182, 183, 184, 182, 183, 184, 182, 183, 184, 182, 183, 184, 182, 183, 184, 182, 183, 184, 182, 183, 184, 884, 884, 884, 884, 884, 884, 884, 884, 884, 884, 884, 884, 884, 182, 183, 184, 182, 183, 184, 182, 183, 184, 182, 183, 184, 182, 183, 184, 182, 183, 184, 182, 183, 184, 182, 183, 184, 182, 183, 184, 182, 183, 184, 182, 183, 184, 182, 183, 184, 182, 183, 184, 182, 183, 184, 182, 183, 184, 182, 183, 184, 182, 183, 184, 884, 884, 884, 884, 884, 884, 884, 884, 884, 884, 884, 884, 884, 182, 183, 184, 182, 183, 184, 182, 183, 184, 182, 183, 184, 182, 183, 184, 182, 183, 184, 182, 183, 184, 182, 183, 184, 182, 183, 184, 182, 183, 184, 182, 183, 184, 182, 183, 184, 182, 183, 184, 182, 183, 184, 182, 183, 184, 182, 183, 184, 182, 183, 184, 182, 183, 184, 884, 884, 184, 182, 183, 184, 182, 183, 184, 182, 182, 183, 184, 182, 183, 184, 182, 183, 184, 182, 183, 184, 182, 183, 184, 182, 183, 184, 182, 183, 184, 182, 183, 184, 182, 183, 184, 182, 183, 184, 182, 183, 184, 182, 183, 184, 182, 183, 184, 182, 183, 184, 182, 183, 184, 182, 183, 184, 182, 183, 184, 182, 183, 184, 884, 884, 184, 182, 183, 184, 182, 183, 184, 182, 182, 183, 184, 182, 183, 184, 182, 183, 184, 182, 183, 184, 182, 183, 184, 182, 183, 184, 182, 183, 184, 182, 183, 184, 182, 183, 184, 182, 183, 184, 182, 183, 184, 182, 183, 184, 182, 183, 184, 182, 183, 184, 182, 183, 184, 182, 183, 184, 182, 183, 184, 182, 183, 184, 884, 884, 184, 182, 183, 184, 182, 183, 184, 182, 182, 183, 184, 182, 183, 184, 182, 183, 184, 182, 183, 184, 182, 183, 184, 182, 183, 184, 182, 183, 184, 182, 183, 184, 182, 183, 184, 182, 183, 184, 182, 183, 184, 182, 183, 184, 182, 183, 184, 182, 183, 184, 182, 183, 184, 182, 183, 184, 182, 183, 184, 182, 183, 184, 884, 884, 184, 182, 183, 184, 182, 183, 184, 182, 182, 183, 184, 182, 183, 184, 182, 183, 184, 182, 183, 184, 182, 183, 184, 182, 183, 184, 182, 183, 184, 182, 183, 184, 182, 183, 184, 182, 183, 184, 182, 183, 184, 182, 183, 184, 182, 183, 184, 182, 183, 184, 182, 183, 184, 182, 183, 184, 182, 183, 184, 182, 183, 184, 884, 884, 184, 182, 183, 184, 182, 183, 184, 182, 182, 183, 184, 182, 183, 184, 182, 183, 184, 182, 183, 184, 182, 183, 184, 182, 183, 184, 182, 183, 184, 182, 183, 184, 182, 183, 184, 182, 183, 184, 182, 183, 184, 182, 183, 184, 182, 183, 184, 182, 183, 184, 182, 183, 184, 182, 183, 184, 182, 183, 184, 182, 183, 983, 983, 983, 983, 182, 183, 184, 182, 183, 184, 182, 182, 183, 184, 182, 183, 184, 182, 183, 184, 182, 183, 184, 182, 183, 184, 182, 183, 184, 182, 183, 184, 182, 183, 184, 182, 183, 184, 182, 183, 184, 182, 183, 184, 983, 983, 983, 983, 983, 983, 983, 983, 983, 983, 983, 983, 983, 983, 983, 983, 983, 983, 983, 983, 983, 983, 983, 983, 983, 983, 184, 182, 183, 184, 182, 182, 183, 184, 182, 183, 184, 182, 183, 184, 182, 183, 184, 182, 183, 184, 182, 183, 184, 182, 183, 184, 182, 183, 184, 182, 183, 184, 182, 183, 184, 182, 183, 184, 983, 983, 983, 983, 983, 983, 983, 983, 983, 983, 983, 983, 983, 983, 983, 983, 983, 983, 983, 983, 983, 983, 983, 983, 983, 983, 184, 182, 183, 184, 182, 182, 183, 184, 182, 183, 184, 182, 183, 184, 182, 183, 184, 182, 183, 184, 182, 183, 184, 182, 183, 184, 182, 183, 184, 182, 183, 184, 182, 183, 184, 182, 183, 184, 983, 983, 983, 983, 983, 983, 983, 983, 983, 983, 983, 983, 983, 983, 983, 983, 983, 983, 983, 983, 983, 983, 983, 983, 983, 983, 184, 182, 183, 184, 182, 182, 183, 184, 182, 183, 184, 182, 183, 184, 182, 183, 184, 182, 183, 184, 182, 183, 184, 182, 183, 184, 182, 183, 184, 182, 183, 184, 182, 183, 184, 182, 183, 184, 983, 983, 983, 983, 983, 983, 983, 983, 983, 983, 983, 983, 983, 983, 983, 983, 983, 983, 983, 983, 983, 983, 983, 983, 983, 983, 184, 182, 183, 184, 182, 182, 183, 184, 182, 183, 184, 983, 983, 983, 983, 983, 983, 983, 983, 983, 983, 983, 983, 983, 983, 983, 983, 983, 983, 983, 983, 983, 983, 983, 983, 983, 983, 983, 983, 983, 983, 983, 983, 983, 983, 983, 983, 983, 983, 983, 983, 983, 983, 983, 983, 983, 983, 983, 983, 983, 983, 983, 983, 983, 184, 182, 183, 184, 182, 182, 183, 184, 182, 183, 184, 983, 983, 983, 983, 983, 983, 983, 983, 983, 983, 983, 983, 983, 983, 983, 983, 983, 983, 983, 983, 983, 983, 983, 983, 983, 983, 983, 983, 983, 983, 983, 983, 983, 983, 983, 983, 983, 983, 983, 983, 983, 983, 983, 983, 983, 983, 983, 983, 983, 983, 983, 983, 983, 184, 182, 183, 184, 182, 182, 183, 184, 182, 183, 184, 983, 983, 983, 983, 983, 983, 983, 983, 983, 983, 983, 983, 983, 983, 983, 983, 983, 983, 983, 983, 983, 983, 983, 983, 983, 983, 983, 983, 983, 983, 983, 983, 983, 983, 983, 983, 983, 983, 983, 983, 983, 983, 983, 983, 983, 983, 983, 983, 983, 983, 983, 983, 983, 184, 182, 183, 184, 182, 182, 183, 184, 182, 183, 184, 983, 983, 983, 983, 983, 983, 983, 983, 983, 983, 983, 983, 983, 983, 983, 983, 983, 983, 983, 983, 983, 983, 983, 983, 983, 983, 983, 983, 983, 983, 983, 983, 983, 983, 983, 983, 983, 983, 983, 983, 983, 983, 983, 983, 983, 983, 983, 983, 983, 983, 983, 983, 983, 184, 182, 183, 184, 182, 182, 183, 184, 182, 183, 184, 983, 983, 983, 983, 983, 983, 983, 983, 983, 983, 983, 983, 983, 983, 983, 983, 983, 983, 983, 983, 184, 184, 184, 184, 184, 184, 184, 983, 983, 983, 983, 983, 983, 983, 983, 983, 983, 983, 983, 983, 983, 983, 983, 983, 983, 983, 983, 983, 983, 983, 983, 983, 983, 184, 182, 183, 184, 182, 182, 183, 184, 182, 183, 184, 983, 983, 983, 983, 983, 983, 983, 983, 983, 983, 983, 983, 983, 983, 983, 983, 983, 983, 983, 983, 184, 184, 184, 184, 184, 184, 184, 983, 983, 983, 983, 983, 983, 983, 983, 983, 983, 983, 983, 983, 983, 983, 983, 983, 983, 983, 983, 983, 983, 983, 983, 983, 983, 184, 182, 183, 184, 182, 182, 183, 184, 182, 183, 184, 983, 983, 983, 983, 983, 983, 983, 983, 983, 983, 983, 983, 983, 983, 983, 983, 983, 983, 983, 983, 184, 184, 184, 184, 184, 184, 184, 983, 983, 983, 983, 983, 983, 983, 983, 983, 983, 983, 983, 983, 983, 983, 983, 983, 983, 983, 983, 983, 983, 983, 983, 983, 983, 184, 182, 183, 184, 182, 182, 183, 184, 182, 183, 184, 983, 983, 983, 983, 983, 983, 983, 983, 983, 983, 983, 983, 983, 983, 983, 983, 983, 983, 983, 983, 184, 184, 184, 184, 184, 184, 184, 983, 983, 983, 983, 983, 983, 983, 983, 983, 983, 983, 983, 983, 983, 983, 983, 983, 983, 983, 983, 983, 983, 983, 983, 983, 983, 184, 182, 183, 184, 182, 182, 183, 184, 182, 183, 184, 983, 983, 983, 983, 983, 983, 983, 983, 983, 983, 983, 983, 983, 983, 983, 983, 983, 983, 983, 983, 184, 184, 184, 184, 184, 184, 184, 983, 983, 983, 983, 983, 983, 983, 983, 983, 983, 983, 983, 983, 983, 983, 983, 983, 983, 983, 983, 983, 983, 983, 983, 983, 983, 184, 182, 183, 184, 182, 182, 183, 184, 182, 183, 184, 983, 983, 983, 983, 983, 983, 983, 983, 983, 983, 983, 983, 983, 983, 983, 983, 983, 983, 983, 983, 184, 184, 184, 184, 184, 184, 184, 184, 184, 184, 184, 184, 184, 184, 184, 184, 184, 184, 184, 184, 184, 184, 184, 184, 184, 184, 184, 184, 884, 884, 184, 182, 183, 184, 182, 183, 184, 182, 182, 183, 184, 182, 183, 184, 983, 983, 983, 983, 983, 983, 983, 983, 983, 983, 983, 983, 983, 983, 983, 983, 983, 983, 983, 983, 184, 184, 184, 184, 184, 184, 184, 184, 184, 184, 184, 184, 184, 184, 184, 184, 184, 184, 184, 184, 184, 184, 184, 184, 184, 184, 184, 184, 884, 884, 184, 182, 183, 184, 182, 183, 184, 182, 182, 183, 184, 182, 183, 184, 983, 983, 983, 983, 983, 983, 983, 983, 983, 983, 983, 983, 983, 983, 983, 983, 983, 983, 983, 983, 184, 184, 184, 184, 184, 184, 184, 184, 184, 184, 184, 184, 184, 184, 184, 184, 184, 184, 184, 184, 184, 184, 184, 184, 184, 184, 184, 184, 884, 884, 184, 182, 183, 184, 182, 183, 184, 182, 182, 183, 184, 182, 183, 184, 182, 183, 184, 182, 183, 184, 182, 183, 184, 182, 183, 184, 182, 983, 983, 983, 983, 184, 184, 184, 184, 184, 184, 184, 184, 184, 184, 184, 184, 184, 184, 184, 184, 184, 184, 184, 184, 184, 184, 184, 184, 184, 184, 184, 184, 184, 184, 184, 884, 884, 184, 182, 183, 184, 182, 183, 184, 182, 182, 183, 184, 182, 183, 184, 182, 183, 184, 182, 183, 184, 182, 183, 184, 182, 183, 184, 182, 983, 983, 983, 983, 184, 184, 184, 184, 184, 184, 184, 184, 184, 184, 184, 184, 184, 184, 184, 184, 184, 184, 184, 184, 184, 184, 184, 184, 184, 184, 184, 184, 184, 184, 184, 884, 884, 184, 182, 183, 184, 182, 183, 184, 182, 182, 183, 184, 182, 183, 184, 182, 183, 184, 182, 183, 184, 182, 183, 184, 182, 183, 184, 182, 983, 983, 983, 983, 184, 184, 184, 184, 184, 184, 184, 184, 184, 184, 184, 184, 184, 184, 184, 184, 184, 184, 184, 184, 184, 184, 184, 184, 184, 184, 184, 184, 184, 184, 184, 884, 884, 884, 182, 183, 184, 182, 183, 184, 182, 182, 183, 184, 182, 183, 184, 182, 183, 184, 182, 183, 184, 182, 183, 184, 182, 183, 184, 182, 983, 983, 983, 983, 184, 184, 184, 184, 184, 184, 184, 184, 184, 184, 184, 184, 184, 184, 184, 184, 184, 184, 184, 184, 184, 184, 184, 184, 184, 184, 184, 184, 184, 184, 184, 884, 884, 884, 884, 183, 184, 182, 183, 184, 182, 182, 183, 184, 182, 183, 184, 182, 183, 184, 182, 183, 184, 182, 183, 184, 182, 183, 184, 182, 983, 983, 983, 983, 184, 184, 184, 184, 184, 184, 184, 184, 184, 184, 184, 184, 184, 184, 184, 184, 184, 184, 184, 184, 184, 184, 184, 184, 184, 184, 184, 184, 184, 184, 184, 184, 884, 884, 884, 183, 184, 182, 183, 184, 182, 182, 183, 184, 182, 183, 184, 182, 183, 184, 182, 183, 184, 182, 183, 184, 182, 183, 184, 182, 983, 983, 983, 983, 184, 184, 184, 184, 184, 184, 184, 184, 184, 184, 184, 184, 184, 184, 184, 184, 184, 184, 184, 184, 184, 184, 184, 184, 184, 184, 184, 184, 184, 184, 184, 184, 184, 884, 884, 183, 184, 182, 183, 184, 182, 182, 183, 184, 182, 183, 184, 182, 183, 184, 182, 183, 184, 182, 183, 184, 182, 183, 184, 182, 983, 983, 983, 983, 184, 184, 184, 184, 184, 184, 184, 184, 184, 184, 184, 184, 184, 184, 184, 184, 184, 184, 184, 184, 184, 184, 184, 184, 184, 184, 184, 184, 184, 184, 184, 184, 184, 884, 884, 183, 184, 182, 183, 184, 182, 182, 183, 184, 182, 183, 184, 182, 183, 184, 182, 183, 184, 182, 183, 184, 182, 183, 184, 182, 983, 983, 983, 983, 184, 184, 184, 184, 184, 184, 184, 184, 184, 184, 184, 184, 184, 184, 184, 184, 184, 184, 184, 184, 184, 184, 184, 184, 184, 184, 184, 184, 184, 184, 184, 184, 184, 884, 884, 183, 184, 182, 183, 184, 182, 182, 183, 184, 182, 183, 184, 182, 183, 184, 182, 183, 184, 182, 183, 184, 182, 183, 184, 182, 983, 983, 983, 983, 184, 184, 184, 184, 184, 184, 184, 184, 184, 184, 184, 184, 184, 184, 184, 184, 184, 184, 184, 184, 184, 184, 184, 184, 184, 184, 184, 184, 184, 184, 184, 184, 184, 884, 884, 183, 184, 182, 183, 184, 182, 182, 183, 184, 182, 183, 184, 182, 183, 184, 182, 183, 184, 182, 183, 184, 182, 183, 184, 182, 983, 983, 983, 983, 184, 184, 184, 184, 184, 184, 184, 184, 184, 184, 184, 184, 184, 184, 184, 184, 184, 184, 184, 184, 184, 184, 184, 184, 184, 184, 184, 184, 184, 184, 184, 184, 184, 884, 884, 183, 184, 182, 183, 184, 182, 182, 183, 184, 182, 183, 184, 182, 183, 184, 182, 183, 184, 182, 183, 184, 182, 183, 184, 182, 983, 983, 983, 983, 184, 184, 184, 184, 184, 184, 184, 184, 184, 184, 184, 184, 184, 184, 184, 184, 184, 184, 184, 184, 184, 184, 184, 184, 184, 184, 184, 184, 184, 184, 184, 184, 184, 884, 884, 183, 184, 182, 183, 184, 182, 182, 183, 184, 182, 183, 184, 182, 183, 184, 182, 183, 184, 182, 183, 184, 182, 183, 184, 182, 983, 983, 983, 983, 184, 184, 184, 184, 184, 184, 184, 184, 184, 184, 184, 184, 184, 184, 184, 184, 184, 184, 184, 184, 184, 184, 184, 184, 184, 184, 184, 184, 184, 184, 184, 184, 184, 884, 884, 183, 184, 182, 183, 184, 182, 182, 183, 184, 182, 183, 184, 182, 183, 184, 182, 183, 184, 182, 183, 184, 182, 183, 184, 182, 983, 983, 983, 983, 184, 184, 184, 184, 184, 184, 184, 184, 184, 184, 184, 184, 184, 184, 184, 184, 184, 184, 184, 184, 184, 184, 983, 983, 983, 983, 983, 983, 983, 983, 983, 983, 983, 884, 884, 983, 983, 182, 183, 184, 182, 182, 183, 184, 182, 183, 184, 182, 183, 184, 182, 183, 184, 182, 183, 184, 182, 183, 184, 182, 983, 983, 983, 983, 184, 184, 184, 184, 184, 184, 184, 184, 184, 184, 184, 184, 184, 184, 184, 184, 184, 184, 184, 184, 184, 184, 983, 983, 983, 983, 983, 983, 983, 983, 983, 983, 983, 983, 983, 983, 983, 182, 183, 184, 182, 182, 183, 184, 182, 183, 184, 983, 983, 983, 983, 983, 983, 983, 983, 983, 983, 983, 983, 983, 983, 983, 983, 983, 983, 983, 983, 983, 983, 983, 983, 983, 983, 983, 983, 983, 184, 184, 184, 184, 184, 184, 184, 184, 184, 184, 983, 983, 983, 983, 983, 983, 983, 983, 983, 983, 983, 983, 983, 983, 983, 182, 183, 184, 182, 182, 183, 184, 182, 183, 184, 983, 983, 983, 983, 983, 983, 983, 983, 983, 983, 983, 983, 983, 983, 983, 983, 983, 983, 983, 983, 983, 983, 983, 983, 983, 983, 983, 983, 983, 184, 184, 184, 184, 184, 184, 184, 184, 184, 184, 983, 983, 983, 983, 983, 983, 983, 983, 983, 983, 983, 983, 983, 983, 983, 182, 183, 184, 182, 182, 183, 184, 182, 183, 184, 983, 983, 983, 983, 983, 983, 983, 983, 983, 983, 983, 983, 983, 983, 983, 983, 983, 983, 983, 983, 983, 983, 983, 983, 983, 983, 983, 983, 983, 184, 184, 184, 184, 184, 184, 184, 184, 184, 184, 983, 983, 983, 983, 983, 983, 983, 983, 983, 983, 983, 983, 983, 983, 983, 182, 183, 184, 182, 182, 183, 184, 182, 183, 184, 983, 983, 983, 983, 983, 983, 983, 983, 983, 983, 983, 983, 983, 983, 983, 983, 983, 983, 983, 983, 983, 983, 983, 983, 983, 983, 983, 983, 983, 184, 184, 184, 184, 184, 184, 184, 184, 184, 184, 983, 983, 983, 983, 983, 983, 983, 983, 983, 983, 983, 983, 983, 983, 983, 182, 183, 184, 182, 182, 183, 184, 182, 183, 184, 983, 983, 983, 983, 983, 983, 983, 983, 983, 983, 983, 983, 983, 983, 983, 983, 983, 983, 983, 983, 983, 983, 983, 983, 983, 983, 983, 983, 983, 184, 184, 184, 184, 184, 184, 184, 184, 184, 184, 983, 983, 983, 983, 983, 983, 983, 983, 983, 983, 983, 983, 983, 983, 983, 182, 183, 184, 182, 182, 183, 184, 182, 183, 184, 983, 983, 983, 983, 983, 983, 983, 983, 983, 983, 983, 983, 983, 983, 983, 983, 983, 983, 983, 983, 983, 983, 983, 983, 983, 983, 983, 983, 983, 184, 184, 184, 184, 184, 184, 184, 184, 184, 184, 983, 983, 983, 983, 983, 983, 983, 983, 983, 983, 983, 983, 983, 983, 983, 182, 183, 184, 182, 182, 183, 184, 182, 183, 184, 983, 983, 983, 983, 983, 983, 983, 983, 983, 983, 983, 983, 983, 983, 983, 983, 983, 983, 983, 983, 983, 983, 983, 983, 983, 983, 983, 983, 983, 184, 184, 184, 184, 184, 184, 184, 184, 184, 184, 983, 983, 983, 983, 983, 983, 983, 983, 983, 983, 983, 983, 983, 983, 983, 182, 183, 184, 182, 182, 183, 184, 182, 183, 184, 983, 983, 983, 983, 983, 983, 983, 983, 983, 983, 983, 983, 983, 983, 983, 983, 983, 983, 983, 983, 983, 983, 983, 983, 983, 983, 983, 983, 983, 184, 184, 184, 184, 184, 184, 184, 184, 184, 184, 983, 983, 983, 983, 983, 983, 983, 983, 983, 983, 983, 983, 983, 983, 983, 182, 183, 184, 182, 182, 183, 184, 182, 183, 184, 983, 983, 983, 983, 983, 983, 983, 983, 983, 983, 983, 983, 983, 983, 983, 983, 983, 983, 983, 983, 983, 983, 983, 983, 983, 983, 983, 983, 983, 184, 184, 184, 184, 184, 184, 184, 184, 184, 184, 983, 983, 983, 983, 983, 983, 983, 983, 983, 983, 983, 983, 983, 983, 983, 182, 183, 184, 182, 182, 183, 184, 182, 183, 184, 983, 983, 983, 983, 983, 983, 983, 983, 983, 983, 983, 983, 983, 983, 983, 983, 983, 983, 983, 983, 983, 983, 983, 983, 983, 983, 983, 983, 983, 983, 983, 983, 983, 983, 983, 983, 983, 983, 983, 983, 983, 983, 983, 983, 983, 983, 983, 983, 983, 983, 983, 983, 983, 983, 182, 183, 184, 182, 182, 183, 184, 182, 183, 184, 983, 983, 983, 983, 983, 983, 983, 983, 983, 983, 983, 983, 983, 983, 983, 983, 983, 983, 983, 983, 983, 983, 983, 983, 983, 983, 983, 983, 983, 983, 983, 983, 983, 983, 983, 983, 983, 983, 983, 983, 983, 983, 983, 983, 983, 983, 983, 983, 983, 983, 983, 983, 983, 983, 182, 183, 184, 182, 182, 183, 184, 182, 183, 184, 983, 983, 983, 983, 983, 983, 983, 983, 983, 983, 983, 983, 983, 983, 983, 983, 983, 983, 983, 983, 983, 983, 983, 983, 983, 983, 983, 983, 983, 983, 983, 983, 983, 983, 983, 983, 983, 983, 983, 983, 983, 983, 983, 983, 983, 983, 983, 983, 983, 983, 983, 983, 983, 983, 182, 183, 184, 182, 182, 183, 184, 182, 183, 184, 983, 983, 983, 983, 983, 983, 983, 983, 983, 983, 983, 983, 983, 983, 983, 983, 983, 983, 983, 983, 983, 983, 983, 983, 983, 983, 983, 983, 983, 983, 983, 983, 983, 983, 983, 983, 983, 983, 983, 983, 983, 983, 983, 983, 983, 983, 983, 983, 983, 983, 983, 983, 983, 983, 182, 183, 184, 182, 182, 183, 184, 182, 183, 184, 182, 183, 184, 182, 183, 184, 182, 183, 184, 182, 183, 184, 182, 183, 184, 182, 183, 184, 182, 183, 184, 182, 183, 184, 182, 183, 184, 182, 183, 184, 182, 183, 184, 182, 183, 184, 182, 183, 184, 983, 983, 983, 983, 983, 983, 983, 983, 983, 983, 983, 983, 983, 983, 983, 182, 183, 184, 182, 182, 183, 184, 182, 183, 184, 182, 183, 184, 182, 183, 184, 182, 183, 184, 182, 183, 184, 182, 183, 184, 182, 183, 184, 182, 183, 184, 182, 183, 184, 182, 183, 184, 182, 183, 184, 182, 183, 184, 182, 183, 184, 182, 183, 184, 983, 983, 983, 983, 983, 983, 983, 983, 983, 983, 983, 983, 983, 983, 983, 182, 183, 184, 182, 182, 183, 184, 182, 183, 184, 182, 183, 184, 182, 183, 184, 182, 183, 184, 182, 183, 184, 182, 183, 184, 182, 183, 184, 182, 183, 184, 182, 183, 184, 182, 183, 184, 182, 183, 184, 182, 183, 184, 182, 183, 184, 182, 183, 184, 983, 983, 983, 983, 983, 983, 983, 983, 983, 983, 983, 983, 983, 983, 983, 182, 183, 184, 182, 182, 183, 184, 182, 183, 184, 182, 183, 184, 182, 183, 184, 182, 183, 184, 182, 183, 184, 182, 183, 184, 182, 183, 184, 182, 183, 184, 182, 183, 184, 182, 183, 184, 182, 183, 184, 182, 183, 184, 182, 183, 184, 182, 183, 184, 983, 983, 983, 983, 983, 983, 983, 983, 983, 983, 983, 983, 983, 983, 983, 182, 183, 184, 182, 182, 183, 184, 182, 183, 184, 182, 183, 184, 182, 183, 184, 182, 183, 184, 182, 183, 184, 182, 183, 184, 182, 183, 184, 182, 183, 184, 182, 183, 184, 182, 183, 184, 182, 183, 184, 182, 183, 184, 182, 183, 184, 182, 183, 184, 983, 983, 983, 983, 983, 983, 983, 983, 983, 983, 983, 983, 983, 983, 983, 182, 183, 184, 182, 182, 183, 184, 182, 183, 184, 182, 183, 184, 182, 183, 184, 182, 183, 184, 182, 183, 184, 182, 183, 184, 182, 183, 184, 182, 183, 184, 182, 183, 184, 182, 183, 184, 182, 183, 184, 182, 183, 184, 182, 183, 184, 182, 183, 184, 983, 983, 983, 983, 983, 983, 983, 983, 983, 983, 983, 983, 983, 983, 983, 182, 183, 184, 182, 182, 183, 184, 182, 183, 184, 182, 183, 184, 182, 183, 184, 182, 183, 184, 182, 183, 184, 182, 183, 184, 182, 183, 184, 182, 183, 184, 182, 183, 184, 182, 183, 184, 182, 183, 184, 182, 183, 184, 182, 183, 184, 182, 183, 184, 983, 983, 983, 983, 983, 983, 983, 983, 983, 983, 983, 983, 983, 983, 983, 182, 183, 184, 182, 182, 183, 184, 182, 183, 184, 182, 183, 184, 182, 183, 184, 182, 183, 184, 182, 183, 184, 182, 183, 184, 182, 183, 184, 182, 183, 184, 182, 183, 184, 182, 183, 184, 182, 183, 184, 182, 183, 184, 182, 183, 184, 182, 183, 184, 182, 183, 184, 182, 183, 184, 182, 183, 184, 182, 183, 184, 182, 183, 184, 182, 183, 184, 182],
         "height":64,
         "name":"terrain",
         "opacity":1,
         "type":"tilelayer",
         "visible":true,
         "width":64,
         "x":0,
         "y":0
        }, 
        {
         "data":[0, 0, 0, 0, 0, 0, 0, 0, 0, 0, 0, 0, 0, 0, 0, 0, 0, 0, 0, 0, 0, 0, 0, 0, 0, 0, 0, 0, 0, 0, 0, 0, 0, 0, 0, 0, 0, 0, 0, 0, 0, 0, 0, 0, 0, 0, 0, 0, 0, 0, 0, 0, 0, 0, 0, 0, 0, 0, 0, 0, 0, 0, 0, 0, 0, 0, 0, 0, 0, 0, 0, 0, 0, 0, 0, 0, 0, 0, 0, 0, 0, 0, 0, 0, 0, 0, 0, 0, 0, 0, 0, 0, 0, 0, 0, 0, 0, 0, 0, 0, 0, 0, 0, 0, 0, 0, 0, 0, 0, 0, 0, 0, 0, 0, 0, 0, 0, 0, 0, 0, 0, 0, 0, 0, 0, 0, 0, 0, 0, 0, 0, 0, 0, 0, 0, 0, 0, 0, 0, 0, 0, 0, 0, 0, 0, 0, 0, 0, 0, 0, 0, 0, 0, 0, 0, 0, 0, 0, 0, 0, 0, 0, 0, 0, 0, 0, 0, 0, 0, 0, 0, 0, 0, 0, 0, 0, 0, 0, 0, 0, 0, 0, 0, 0, 0, 0, 0, 0, 0, 0, 0, 0, 0, 0, 0, 0, 0, 0, 0, 0, 0, 0, 0, 0, 0, 0, 0, 0, 0, 0, 0, 0, 0, 0, 0, 0, 0, 0, 0, 0, 0, 0, 0, 0, 0, 0, 0, 0, 0, 0, 0, 0, 0, 0, 0, 0, 0, 0, 0, 0, 0, 0, 0, 0, 0, 0, 0, 0, 0, 0, 0, 0, 0, 0, 0, 0, 0, 0, 0, 0, 0, 0, 0, 0, 0, 0, 0, 0, 0, 0, 0, 0, 0, 0, 0, 0, 0, 0, 0, 0, 0, 0, 0, 0, 0, 0, 0, 0, 0, 0, 0, 0, 0, 0, 0, 0, 0, 0, 0, 0, 0, 0, 0, 0, 0, 0, 0, 0, 0, 0, 0, 0, 0, 0, 0, 0, 0, 0, 0, 0, 0, 0, 0, 0, 0, 0, 0, 0, 0, 0, 0, 0, 0, 0, 0, 0, 0, 0, 0, 0, 0, 0, 0, 0, 0, 0, 0, 0, 0, 0, 0, 0, 0, 0, 0, 0, 0, 0, 0, 0, 0, 0, 0, 0, 0, 0, 0, 0, 0, 0, 0, 0, 0, 0, 0, 0, 0, 0, 0, 0, 0, 0, 0, 0, 0, 0, 0, 0, 0, 0, 0, 0, 0, 0, 0, 0, 0, 0, 0, 0, 0, 0, 0, 0, 0, 0, 0, 0, 0, 0, 0, 0, 0, 0, 0, 0, 0, 0, 0, 0, 0, 0, 0, 0, 0, 0, 0, 0, 0, 0, 0, 0, 0, 0, 0, 0, 0, 0, 0, 0, 0, 0, 0, 0, 0, 0, 0, 0, 0, 0, 0, 0, 0, 0, 0, 0, 0, 0, 0, 0, 0, 0, 0, 0, 0, 0, 0, 0, 0, 0, 0, 0, 0, 0, 0, 0, 0, 0, 0, 0, 0, 0, 0, 0, 0, 0, 0, 0, 0, 0, 0, 0, 0, 0, 0, 0, 0, 0, 0, 0, 0, 0, 0, 0, 0, 0, 0, 0, 0, 0, 0, 0, 0, 0, 0, 0, 0, 0, 0, 0, 0, 0, 0, 0, 0, 0, 0, 0, 0, 0, 0, 0, 0, 0, 0, 0, 0, 0, 0, 0, 0, 0, 0, 0, 0, 0, 0, 0, 0, 0, 0, 0, 0, 0, 0, 0, 0, 0, 0, 0, 0, 0, 0, 0, 0, 0, 0, 0, 0, 0, 0, 0, 0, 0, 0, 0, 0, 0, 0, 0, 0, 0, 0, 0, 0, 0, 0, 0, 0, 0, 0, 0, 0, 0, 0, 0, 0, 0, 0, 0, 0, 0, 0, 0, 0, 0, 0, 0, 0, 0, 0, 0, 0, 0, 0, 0, 0, 0, 0, 0, 0, 0, 0, 0, 0, 0, 0, 0, 0, 0, 0, 0, 0, 0, 0, 0, 0, 0, 0, 0, 0, 0, 0, 0, 0, 0, 0, 0, 0, 0, 0, 0, 0, 0, 0, 0, 0, 0, 0, 0, 0, 0, 0, 0, 0, 0, 0, 0, 0, 0, 0, 0, 0, 0, 0, 0, 0, 0, 0, 0, 0, 0, 0, 0, 0, 0, 0, 0, 0, 0, 0, 0, 0, 0, 0, 0, 0, 0, 0, 0, 0, 0, 0, 0, 0, 0, 0, 0, 0, 0, 0, 0, 0, 0, 0, 0, 0, 0, 0, 0, 0, 0, 0, 0, 0, 0, 0, 0, 0, 0, 0, 0, 0, 0, 0, 0, 0, 0, 0, 0, 0, 0, 0, 0, 0, 0, 0, 0, 0, 0, 0, 0, 0, 0, 0, 0, 0, 0, 0, 0, 0, 0, 0, 0, 0, 0, 0, 0, 0, 0, 0, 0, 0, 0, 0, 0, 0, 0, 0, 0, 0, 0, 0, 0, 0, 0, 0, 0, 0, 0, 0, 0, 0, 0, 0, 0, 0, 0, 0, 0, 0, 0, 0, 0, 0, 0, 0, 0, 0, 0, 0, 0, 0, 0, 0, 0, 0, 0, 0, 0, 0, 945, 0, 0, 947, 0, 0, 0, 0, 0, 0, 0, 0, 0, 0, 0, 0, 0, 0, 0, 0, 0, 0, 0, 0, 0, 0, 0, 0, 0, 0, 0, 0, 0, 0, 0, 0, 0, 0, 0, 0, 0, 0, 0, 0, 945, 946, 946, 946, 946, 946, 946, 946, 946, 946, 946, 946, 946, 946, 946, 946, 946, 946, 946, 946, 981, 0, 0, 980, 946, 947, 0, 0, 0, 0, 0, 0, 0, 0, 0, 0, 0, 0, 0, 0, 0, 0, 0, 0, 0, 0, 0, 0, 0, 0, 0, 0, 0, 0, 0, 0, 0, 0, 0, 0, 0, 0, 0, 0, 977, 0, 0, 0, 0, 0, 0, 0, 0, 0, 0, 0, 0, 0, 0, 0, 0, 0, 0, 0, 0, 0, 0, 0, 0, 979, 0, 0, 0, 0, 0, 0, 0, 0, 0, 0, 0, 0, 0, 0, 0, 0, 0, 0, 0, 0, 0, 0, 0, 0, 0, 0, 0, 0, 0, 0, 0, 0, 0, 0, 0, 0, 0, 0, 977, 0, 0, 0, 0, 0, 0, 0, 0, 0, 0, 0, 0, 0, 0, 0, 0, 0, 0, 0, 0, 0, 0, 0, 0, 979, 0, 0, 0, 0, 0, 0, 0, 0, 0, 0, 0, 0, 0, 0, 0, 0, 0, 0, 0, 0, 0, 0, 0, 0, 0, 0, 0, 0, 0, 0, 0, 0, 0, 0, 0, 0, 0, 0, 977, 0, 0, 0, 0, 0, 0, 0, 0, 0, 0, 0, 0, 0, 0, 0, 0, 0, 0, 0, 0, 0, 0, 0, 0, 979, 0, 0, 0, 0, 0, 0, 0, 0, 0, 0, 0, 945, 946, 946, 946, 946, 946, 946, 946, 946, 946, 946, 946, 946, 946, 946, 946, 946, 946, 946, 946, 946, 946, 946, 946, 946, 946, 946, 981, 0, 0, 0, 0, 0, 0, 0, 0, 0, 0, 0, 0, 0, 0, 0, 0, 0, 0, 0, 0, 0, 0, 0, 0, 979, 0, 0, 0, 0, 0, 0, 0, 0, 0, 0, 0, 977, 0, 0, 0, 0, 0, 0, 0, 0, 0, 0, 0, 0, 0, 0, 0, 0, 0, 0, 0, 0, 0, 0, 0, 0, 0, 0, 0, 0, 0, 0, 0, 0, 0, 0, 0, 0, 0, 0, 0, 0, 0, 0, 0, 0, 0, 0, 0, 0, 0, 0, 0, 979, 0, 0, 0, 0, 0, 0, 0, 0, 0, 0, 0, 977, 0, 0, 0, 0, 0, 0, 0, 0, 0, 0, 0, 0, 0, 0, 0, 0, 0, 0, 0, 0, 0, 0, 0, 0, 0, 0, 0, 0, 0, 0, 0, 0, 0, 0, 0, 0, 0, 0, 0, 0, 0, 0, 0, 0, 0, 0, 0, 0, 0, 0, 0, 979, 0, 0, 0, 0, 0, 0, 0, 0, 0, 0, 0, 977, 0, 0, 0, 0, 0, 0, 0, 0, 0, 0, 0, 0, 0, 0, 0, 0, 0, 0, 948, 1010, 1010, 1010, 1010, 1010, 1010, 1010, 949, 0, 0, 0, 0, 0, 0, 0, 0, 0, 0, 0, 0, 0, 0, 0, 0, 0, 0, 0, 0, 0, 0, 0, 0, 979, 0, 0, 0, 0, 0, 0, 0, 0, 0, 0, 0, 977, 0, 0, 0, 0, 0, 0, 0, 0, 0, 0, 0, 0, 0, 0, 0, 0, 0, 0, 979, 0, 0, 0, 0, 0, 0, 0, 977, 0, 0, 0, 0, 0, 0, 0, 0, 0, 0, 0, 0, 0, 0, 0, 0, 0, 0, 0, 0, 0, 0, 0, 0, 979, 0, 0, 0, 0, 0, 0, 0, 0, 0, 0, 0, 977, 0, 0, 0, 0, 0, 0, 0, 0, 0, 0, 0, 0, 0, 0, 0, 0, 0, 0, 979, 0, 0, 0, 0, 0, 0, 0, 977, 0, 0, 0, 0, 0, 0, 0, 0, 0, 0, 0, 0, 0, 0, 0, 0, 0, 0, 0, 0, 0, 0, 0, 0, 979, 0, 0, 0, 0, 0, 0, 0, 0, 0, 0, 0, 977, 0, 0, 0, 0, 0, 0, 0, 0, 0, 0, 0, 0, 0, 0, 0, 0, 0, 0, 979, 0, 0, 0, 0, 0, 0, 0, 977, 0, 0, 0, 0, 0, 0, 0, 0, 0, 0, 0, 0, 0, 0, 0, 0, 0, 0, 0, 0, 0, 0, 0, 0, 979, 0, 0, 0, 0, 0, 0, 0, 0, 0, 0, 0, 977, 0, 0, 0, 0, 0, 0, 0, 0, 0, 0, 0, 0, 0, 0, 0, 0, 0, 0, 979, 0, 0, 0, 0, 0, 0, 0, 977, 0, 0, 0, 0, 0, 0, 0, 0, 0, 0, 0, 0, 0, 0, 0, 0, 0, 0, 0, 0, 0, 0, 0, 0, 979, 0, 0, 0, 0, 0, 0, 0, 0, 0, 0, 0, 977, 0, 0, 0, 0, 0, 0, 0, 0, 0, 0, 0, 0, 0, 0, 0, 0, 0, 0, 979, 0, 0, 0, 0, 0, 0, 0, 1009, 1010, 1010, 1010, 1010, 1010, 1010, 1010, 1010, 1010, 1010, 1010, 1010, 1010, 1010, 1010, 1010, 1010, 1010, 1010, 1010, 0, 0, 1010, 1010, 1011, 0, 0, 0, 0, 0, 0, 0, 0, 0, 0, 0, 977, 0, 0, 0, 0, 0, 0, 0, 0, 0, 0, 0, 0, 0, 0, 0, 0, 0, 0, 979, 0, 0, 0, 0, 0, 0, 0, 0, 0, 0, 0, 0, 0, 0, 0, 0, 0, 0, 0, 0, 0, 0, 0, 0, 0, 0, 0, 0, 0, 0, 0, 0, 0, 0, 0, 0, 0, 0, 0, 0, 0, 0, 0, 0, 977, 0, 0, 0, 0, 0, 0, 0, 0, 0, 0, 0, 0, 0, 0, 0, 0, 0, 0, 979, 0, 0, 0, 0, 0, 0, 0, 0, 0, 0, 0, 0, 0, 0, 0, 0, 0, 0, 0, 0, 0, 0, 0, 0, 0, 0, 0, 0, 0, 0, 0, 0, 0, 0, 0, 0, 0, 0, 0, 0, 0, 0, 0, 0, 1009, 1010, 1010, 1010, 1010, 1010, 1010, 1010, 1010, 1010, 1010, 1010, 1010, 949, 0, 0, 948, 1010, 1010, 1011, 0, 0, 0, 0, 0, 0, 0, 0, 0, 0, 0, 0, 0, 0, 0, 0, 0, 0, 0, 0, 0, 0, 0, 0, 0, 0, 0, 0, 0, 0, 0, 0, 0, 0, 0, 0, 0, 0, 0, 0, 0, 0, 0, 0, 0, 0, 0, 0, 0, 0, 0, 0, 0, 0, 0, 0, 0, 977, 0, 0, 979, 0, 0, 0, 0, 0, 0, 0, 0, 0, 0, 0, 0, 0, 0, 0, 0, 0, 0, 0, 0, 0, 0, 0, 0, 0, 0, 0, 0, 0, 0, 0, 0, 0, 0, 0, 0, 0, 0, 0, 0, 0, 0, 0, 0, 0, 0, 0, 0, 0, 0, 0, 0, 0, 0, 0, 0, 0, 0, 0, 0, 977, 0, 0, 979, 0, 0, 0, 0, 0, 0, 0, 0, 0, 0, 0, 0, 0, 0, 0, 0, 0, 0, 0, 0, 0, 0, 0, 0, 0, 0, 0, 0, 0, 0, 0, 0, 0, 0, 0, 0, 0, 0, 0, 0, 0, 0, 0, 0, 0, 0, 0, 0, 0, 0, 0, 0, 0, 0, 0, 0, 0, 0, 0, 0, 977, 0, 0, 979, 0, 0, 0, 0, 0, 0, 0, 0, 0, 0, 0, 0, 0, 0, 0, 0, 0, 0, 0, 0, 0, 0, 0, 0, 0, 0, 0, 0, 0, 0, 0, 0, 0, 0, 0, 0, 0, 0, 0, 0, 0, 0, 0, 0, 0, 0, 0, 0, 0, 0, 0, 0, 0, 0, 0, 0, 0, 0, 0, 0, 977, 0, 0, 979, 0, 0, 0, 0, 0, 0, 0, 0, 0, 0, 0, 0, 0, 0, 0, 0, 0, 0, 0, 0, 0, 0, 0, 0, 0, 0, 0, 0, 0, 0, 0, 0, 0, 0, 0, 0, 0, 0, 0, 0, 0, 0, 0, 0, 0, 0, 0, 0, 0, 0, 0, 0, 0, 0, 0, 0, 0, 0, 0, 0, 977, 0, 0, 979, 0, 0, 0, 0, 0, 0, 0, 0, 0, 0, 0, 0, 0, 0, 0, 0, 0, 0, 0, 0, 0, 0, 0, 0, 0, 0, 0, 0, 0, 0, 0, 0, 0, 0, 0, 0, 0, 0, 0, 0, 0, 0, 0, 0, 0, 0, 0, 0, 0, 0, 0, 0, 0, 0, 0, 0, 0, 0, 0, 0, 977, 0, 0, 979, 0, 0, 0, 0, 0, 0, 0, 0, 0, 0, 0, 0, 0, 0, 0, 0, 0, 0, 0, 0, 0, 0, 0, 0, 0, 0, 0, 0, 0, 0, 0, 0, 0, 0, 0, 0, 0, 0, 0, 0, 0, 0, 0, 0, 0, 0, 0, 0, 0, 0, 0, 0, 0, 0, 0, 0, 0, 0, 0, 0, 977, 0, 0, 979, 0, 0, 0, 0, 0, 0, 0, 0, 0, 0, 0, 0, 0, 0, 0, 0, 0, 0, 0, 0, 0, 0, 0, 0, 0, 0, 0, 0, 0, 0, 0, 0, 0, 0, 0, 0, 0, 0, 0, 0, 0, 0, 0, 0, 0, 0, 0, 0, 0, 0, 0, 0, 0, 0, 0, 0, 0, 0, 0, 0, 977, 0, 0, 979, 0, 0, 0, 0, 0, 0, 0, 0, 0, 0, 0, 0, 0, 0, 0, 0, 0, 0, 0, 0, 0, 0, 0, 0, 0, 0, 0, 0, 0, 0, 0, 0, 0, 0, 0, 0, 0, 0, 0, 0, 0, 0, 0, 0, 0, 0, 0, 0, 0, 0, 0, 0, 0, 0, 0, 0, 0, 0, 0, 0, 977, 0, 0, 979, 0, 0, 0, 0, 0, 0, 0, 0, 0, 0, 0, 0, 0, 0, 0, 0, 0, 0, 0, 0, 0, 0, 0, 0, 0, 0, 0, 0, 0, 0, 0, 0, 0, 0, 0, 0, 0, 0, 0, 0, 0, 0, 0, 0, 0, 0, 0, 0, 0, 0, 0, 0, 0, 0, 0, 0, 0, 0, 0, 0, 977, 0, 0, 979, 0, 0, 0, 0, 0, 0, 0, 0, 0, 0, 0, 0, 0, 0, 0, 0, 0, 0, 0, 0, 0, 0, 0, 0, 0, 0, 0, 0, 0, 0, 0, 0, 0, 0, 0, 0, 0, 0, 0, 0, 0, 0, 0, 0, 0, 0, 0, 0, 0, 0, 0, 0, 0, 0, 0, 0, 0, 0, 0, 0, 977, 0, 0, 979, 0, 0, 0, 0, 0, 0, 0, 0, 0, 0, 0, 0, 0, 0, 0, 0, 0, 0, 0, 0, 0, 0, 0, 0, 0, 0, 0, 0, 0, 0, 0, 0, 0, 0, 0, 0, 0, 0, 0, 0, 0, 0, 0, 0, 0, 0, 0, 0, 0, 0, 0, 0, 0, 0, 0, 0, 0, 0, 0, 0, 977, 0, 0, 979, 0, 0, 0, 0, 0, 0, 0, 0, 0, 0, 0, 0, 0, 0, 0, 0, 0, 0, 0, 0, 0, 0, 0, 0, 0, 0, 0, 0, 0, 0, 0, 0, 0, 0, 0, 0, 0, 0, 0, 0, 0, 0, 0, 0, 0, 0, 0, 0, 0, 0, 0, 0, 0, 0, 0, 0, 0, 0, 0, 0, 977, 0, 0, 979, 0, 0, 0, 0, 0, 0, 0, 0, 0, 0, 0, 0, 0, 0, 0, 0, 0, 0, 0, 0, 0, 0, 945, 946, 946, 946, 946, 946, 946, 946, 946, 946, 946, 0, 0, 946, 947, 0, 0, 0, 0, 0, 0, 0, 0, 0, 0, 0, 0, 0, 0, 0, 0, 0, 0, 0, 0, 0, 0, 0, 977, 0, 0, 979, 0, 0, 0, 0, 0, 0, 0, 0, 0, 0, 0, 0, 0, 0, 0, 0, 0, 0, 0, 0, 0, 0, 977, 0, 0, 0, 0, 0, 0, 0, 0, 0, 0, 0, 0, 0, 979, 0, 0, 0, 0, 0, 0, 0, 0, 0, 0, 945, 946, 946, 946, 946, 946, 946, 946, 946, 946, 946, 946, 946, 981, 0, 0, 980, 946, 946, 946, 946, 946, 946, 946, 946, 946, 946, 946, 947, 0, 0, 0, 0, 0, 0, 0, 0, 0, 0, 977, 0, 0, 0, 0, 0, 0, 0, 0, 0, 0, 0, 0, 0, 979, 0, 0, 0, 0, 0, 0, 0, 0, 0, 0, 977, 0, 0, 0, 0, 0, 0, 0, 0, 0, 0, 0, 0, 0, 0, 0, 0, 0, 0, 0, 0, 0, 0, 0, 0, 0, 0, 0, 979, 0, 0, 0, 0, 0, 0, 0, 0, 0, 0, 977, 0, 0, 0, 0, 0, 0, 0, 0, 0, 0, 0, 0, 0, 979, 0, 0, 0, 0, 0, 0, 0, 0, 0, 0, 977, 0, 0, 0, 0, 0, 0, 0, 0, 0, 0, 0, 0, 0, 0, 0, 0, 0, 0, 0, 0, 0, 0, 0, 0, 0, 0, 0, 979, 0, 0, 0, 0, 0, 0, 0, 0, 0, 0, 977, 0, 0, 0, 0, 0, 0, 0, 0, 0, 0, 0, 0, 0, 979, 0, 0, 0, 0, 0, 0, 0, 0, 0, 0, 977, 0, 0, 0, 0, 0, 0, 0, 0, 0, 0, 0, 0, 0, 0, 0, 0, 0, 0, 0, 0, 0, 0, 0, 0, 0, 0, 0, 979, 0, 0, 0, 0, 0, 0, 0, 0, 0, 0, 977, 0, 0, 0, 0, 0, 0, 0, 0, 0, 0, 0, 0, 0, 979, 0, 0, 0, 0, 0, 0, 0, 0, 0, 0, 977, 0, 0, 0, 0, 0, 0, 0, 0, 0, 0, 0, 0, 0, 0, 0, 0, 0, 0, 0, 0, 0, 0, 0, 0, 0, 0, 0, 979, 0, 0, 0, 0, 0, 0, 0, 0, 0, 0, 977, 0, 0, 0, 0, 0, 0, 0, 0, 0, 0, 0, 0, 0, 979, 0, 0, 0, 0, 0, 0, 0, 0, 0, 0, 977, 0, 0, 0, 0, 0, 0, 0, 0, 0, 0, 0, 0, 0, 0, 0, 0, 0, 0, 0, 0, 0, 0, 0, 0, 0, 0, 0, 979, 0, 0, 0, 0, 0, 0, 0, 0, 0, 0, 977, 0, 0, 0, 0, 0, 0, 0, 0, 0, 0, 0, 0, 0, 979, 0, 0, 0, 0, 0, 0, 0, 0, 0, 0, 977, 0, 0, 0, 0, 0, 0, 0, 0, 0, 0, 0, 0, 0, 0, 0, 0, 0, 0, 0, 0, 0, 0, 0, 0, 0, 0, 0, 979, 0, 0, 0, 0, 0, 0, 0, 0, 0, 0, 977, 0, 0, 0, 0, 0, 0, 0, 0, 0, 0, 0, 0, 0, 979, 0, 0, 0, 0, 0, 0, 0, 0, 0, 0, 977, 0, 0, 0, 0, 0, 0, 0, 0, 0, 0, 0, 0, 0, 0, 0, 0, 0, 0, 0, 0, 0, 0, 0, 0, 0, 0, 0, 979, 0, 0, 0, 0, 0, 0, 0, 0, 0, 0, 977, 0, 0, 0, 0, 0, 0, 0, 0, 0, 0, 0, 0, 0, 979, 0, 0, 0, 0, 0, 0, 0, 0, 0, 0, 977, 0, 0, 0, 0, 0, 0, 0, 0, 0, 0, 0, 0, 0, 0, 0, 0, 0, 0, 0, 0, 0, 0, 0, 0, 0, 0, 0, 979, 0, 0, 0, 0, 0, 0, 0, 0, 0, 0, 977, 0, 0, 0, 0, 0, 0, 0, 0, 0, 0, 0, 0, 0, 979, 0, 0, 0, 0, 0, 0, 0, 0, 0, 0, 977, 0, 0, 0, 0, 0, 0, 0, 0, 0, 0, 0, 0, 0, 0, 0, 0, 0, 0, 0, 0, 0, 0, 0, 0, 0, 0, 0, 980, 946, 946, 946, 946, 946, 946, 946, 946, 946, 946, 981, 0, 0, 0, 0, 0, 0, 0, 0, 0, 0, 0, 0, 0, 979, 0, 0, 0, 0, 0, 0, 0, 0, 0, 0, 977, 0, 0, 0, 0, 0, 0, 0, 0, 0, 0, 0, 0, 0, 0, 0, 0, 0, 0, 0, 0, 0, 0, 0, 0, 0, 0, 0, 0, 0, 0, 0, 0, 0, 0, 0, 0, 0, 0, 0, 0, 0, 0, 0, 0, 0, 0, 0, 0, 0, 0, 0, 0, 979, 0, 0, 0, 0, 0, 0, 0, 0, 0, 0, 977, 0, 0, 0, 0, 0, 0, 0, 0, 0, 0, 0, 0, 0, 0, 0, 0, 0, 0, 0, 0, 0, 0, 0, 0, 0, 0, 0, 0, 0, 0, 0, 0, 0, 0, 0, 0, 0, 0, 0, 0, 0, 0, 0, 0, 0, 0, 0, 0, 0, 0, 0, 0, 979, 0, 0, 0, 0, 0, 0, 0, 0, 0, 0, 1009, 1010, 1010, 1010, 1010, 1010, 1010, 1010, 1010, 1010, 1010, 1010, 1010, 1010, 1010, 1010, 1010, 1010, 1010, 1010, 1010, 1010, 1010, 1010, 1010, 1010, 1010, 1010, 1010, 1010, 1010, 1010, 1010, 1010, 1010, 1010, 1010, 1010, 1010, 949, 0, 0, 0, 0, 0, 0, 0, 0, 0, 0, 0, 0, 0, 979, 0, 0, 0, 0, 0, 0, 0, 0, 0, 0, 0, 0, 0, 0, 0, 0, 0, 0, 0, 0, 0, 0, 0, 0, 0, 0, 0, 0, 0, 0, 0, 0, 0, 0, 0, 0, 0, 0, 0, 0, 0, 0, 0, 0, 0, 0, 0, 0, 0, 977, 0, 0, 0, 0, 0, 0, 0, 0, 0, 0, 0, 0, 0, 979, 0, 0, 0, 0, 0, 0, 0, 0, 0, 0, 0, 0, 0, 0, 0, 0, 0, 0, 0, 0, 0, 0, 0, 0, 0, 0, 0, 0, 0, 0, 0, 0, 0, 0, 0, 0, 0, 0, 0, 0, 0, 0, 0, 0, 0, 0, 0, 0, 0, 977, 0, 0, 0, 0, 0, 0, 0, 0, 0, 0, 0, 0, 0, 979, 0, 0, 0, 0, 0, 0, 0, 0, 0, 0, 0, 0, 0, 0, 0, 0, 0, 0, 0, 0, 0, 0, 0, 0, 0, 0, 0, 0, 0, 0, 0, 0, 0, 0, 0, 0, 0, 0, 0, 0, 0, 0, 0, 0, 0, 0, 0, 0, 0, 977, 0, 0, 0, 0, 0, 0, 0, 0, 0, 0, 0, 0, 0, 979, 0, 0, 0, 0, 0, 0, 0, 0, 0, 0, 0, 0, 0, 0, 0, 0, 0, 0, 0, 0, 0, 0, 0, 0, 0, 0, 0, 0, 0, 0, 0, 0, 0, 0, 0, 0, 0, 0, 0, 0, 0, 0, 0, 0, 0, 0, 0, 0, 0, 977, 0, 0, 0, 0, 0, 0, 0, 0, 0, 0, 0, 0, 0, 979, 0, 0, 0, 0, 0, 0, 0, 0, 0, 0, 0, 0, 0, 0, 0, 0, 0, 0, 0, 0, 0, 0, 0, 0, 0, 0, 0, 0, 0, 0, 0, 0, 0, 0, 0, 0, 0, 0, 0, 0, 0, 0, 0, 0, 0, 0, 0, 0, 0, 977, 0, 0, 0, 0, 0, 0, 0, 0, 0, 0, 0, 0, 0, 979, 0, 0, 0, 0, 0, 0, 0, 0, 0, 0, 0, 0, 0, 0, 0, 0, 0, 0, 0, 0, 0, 0, 0, 0, 0, 0, 0, 0, 0, 0, 0, 0, 0, 0, 0, 0, 0, 0, 0, 0, 0, 0, 0, 0, 0, 0, 0, 0, 0, 977, 0, 0, 0, 0, 0, 0, 0, 0, 0, 0, 0, 0, 0, 979, 0, 0, 0, 0, 0, 0, 0, 0, 0, 0, 0, 0, 0, 0, 0, 0, 0, 0, 0, 0, 0, 0, 0, 0, 0, 0, 0, 0, 0, 0, 0, 0, 0, 0, 0, 0, 0, 0, 0, 0, 0, 0, 0, 0, 0, 0, 0, 0, 0, 1009, 1010, 1010, 1010, 1010, 1010, 1010, 1010, 1010, 1010, 1010, 1010, 1010, 1010, 1011, 0, 0, 0, 0, 0, 0, 0, 0, 0, 0, 0, 0, 0, 0, 0, 0, 0, 0, 0, 0, 0, 0, 0, 0, 0, 0, 0, 0, 0, 0, 0, 0, 0, 0, 0, 0, 0, 0, 0, 0, 0, 0, 0, 0, 0, 0, 0, 0, 0, 0, 0, 0, 0, 0, 0, 0, 0, 0, 0, 0, 0, 0, 0, 0, 0, 0, 0, 0],
         "height":64,
         "name":"Walls",
         "opacity":1,
         "type":"tilelayer",
         "visible":true,
         "width":64,
         "x":0,
         "y":0
        }, 
        {
         "data":[0, 0, 0, 0, 0, 0, 0, 0, 0, 0, 0, 0, 0, 0, 0, 0, 0, 0, 0, 0, 0, 0, 0, 0, 0, 0, 0, 0, 0, 0, 0, 0, 0, 0, 0, 0, 0, 0, 0, 0, 0, 0, 0, 0, 0, 0, 0, 0, 0, 0, 0, 0, 0, 0, 0, 0, 0, 0, 0, 0, 0, 0, 0, 0, 0, 0, 0, 926, 927, 928, 926, 927, 928, 926, 927, 928, 0, 926, 927, 928, 0, 926, 927, 928, 0, 0, 0, 0, 0, 0, 0, 0, 0, 0, 0, 0, 0, 0, 0, 0, 0, 0, 0, 0, 0, 0, 0, 0, 0, 0, 0, 0, 0, 0, 0, 0, 0, 0, 0, 0, 0, 0, 0, 0, 0, 0, 0, 0, 0, 0, 0, 958, 959, 960, 958, 959, 960, 958, 959, 960, 0, 958, 959, 960, 0, 958, 959, 960, 0, 0, 0, 0, 0, 0, 0, 0, 0, 0, 0, 0, 0, 0, 0, 0, 0, 0, 0, 0, 0, 0, 0, 0, 0, 0, 0, 0, 0, 0, 0, 0, 0, 0, 0, 0, 0, 0, 0, 0, 0, 0, 0, 0, 0, 0, 0, 990, 991, 992, 990, 991, 992, 990, 991, 992, 0, 990, 991, 992, 0, 990, 991, 992, 0, 0, 0, 0, 0, 0, 0, 0, 0, 0, 0, 0, 0, 0, 0, 0, 0, 0, 0, 0, 0, 0, 0, 0, 0, 0, 0, 0, 0, 0, 0, 0, 0, 0, 0, 0, 0, 0, 0, 0, 0, 0, 0, 0, 0, 0, 0, 1022, 1023, 1024, 1022, 1023, 1024, 1022, 1023, 1024, 0, 1022, 1023, 1024, 0, 1022, 1023, 1024, 0, 0, 0, 0, 0, 0, 0, 0, 0, 0, 0, 0, 0, 0, 0, 0, 0, 0, 0, 0, 0, 0, 0, 0, 0, 0, 0, 0, 0, 0, 0, 0, 0, 0, 0, 0, 0, 0, 0, 0, 0, 0, 0, 0, 0, 0, 0, 0, 0, 0, 0, 0, 0, 0, 0, 0, 0, 0, 0, 0, 0, 0, 0, 0, 0, 0, 0, 0, 0, 0, 0, 0, 0, 0, 0, 0, 0, 0, 0, 0, 0, 0, 0, 0, 0, 0, 0, 0, 0, 0, 0, 0, 0, 0, 0, 0, 0, 0, 0, 0, 0, 0, 0, 0, 0, 0, 0, 0, 0, 0, 0, 0, 0, 0, 0, 0, 0, 0, 0, 0, 0, 0, 0, 0, 0, 0, 0, 0, 0, 0, 0, 0, 0, 0, 0, 0, 0, 0, 0, 0, 0, 0, 0, 0, 0, 0, 0, 0, 0, 0, 0, 0, 0, 0, 0, 0, 0, 0, 0, 0, 0, 0, 0, 0, 0, 0, 0, 0, 0, 0, 0, 0, 0, 0, 0, 0, 0, 0, 0, 0, 0, 0, 0, 0, 0, 0, 0, 0, 0, 0, 0, 0, 0, 0, 0, 0, 0, 0, 0, 0, 0, 0, 0, 0, 0, 0, 0, 0, 0, 0, 0, 0, 0, 0, 0, 0, 0, 0, 0, 0, 0, 0, 0, 0, 0, 0, 0, 0, 0, 0, 0, 0, 0, 0, 0, 0, 0, 0, 0, 0, 0, 0, 0, 0, 0, 0, 0, 0, 0, 0, 0, 0, 0, 0, 0, 0, 0, 0, 0, 0, 0, 0, 0, 0, 0, 0, 0, 0, 0, 0, 0, 0, 0, 0, 0, 0, 0, 0, 0, 0, 0, 0, 0, 0, 0, 0, 0, 0, 0, 0, 0, 0, 0, 0, 0, 0, 0, 0, 0, 0, 0, 0, 0, 0, 0, 0, 0, 0, 0, 0, 0, 0, 0, 0, 0, 0, 0, 0, 0, 0, 0, 0, 0, 0, 0, 0, 0, 0, 0, 0, 0, 0, 0, 0, 0, 0, 0, 0, 0, 0, 0, 0, 0, 0, 0, 0, 0, 0, 0, 0, 0, 0, 0, 0, 0, 0, 0, 0, 0, 0, 0, 0, 0, 0, 0, 0, 0, 0, 0, 0, 0, 0, 0, 0, 0, 0, 0, 0, 0, 0, 0, 0, 0, 0, 0, 0, 0, 0, 0, 0, 0, 0, 0, 0, 0, 0, 0, 0, 0, 0, 0, 0, 0, 0, 0, 0, 0, 0, 0, 0, 0, 0, 0, 0, 0, 0, 844, 0, 0, 0, 0, 844, 0, 0, 0, 0, 0, 844, 0, 0, 0, 0, 0, 0, 0, 0, 0, 0, 0, 0, 0, 0, 0, 0, 0, 0, 0, 0, 0, 0, 0, 0, 0, 0, 0, 0, 0, 0, 0, 0, 0, 0, 0, 0, 0, 0, 0, 0, 0, 0, 0, 0, 0, 0, 0, 0, 0, 0, 0, 0, 876, 0, 0, 0, 0, 876, 0, 0, 0, 0, 0, 876, 0, 0, 0, 0, 0, 0, 0, 0, 0, 0, 0, 0, 0, 0, 0, 0, 0, 0, 0, 0, 0, 0, 0, 0, 0, 0, 0, 0, 0, 0, 0, 0, 0, 0, 0, 0, 0, 0, 0, 0, 0, 0, 0, 0, 0, 0, 0, 0, 0, 0, 0, 0, 0, 0, 0, 0, 0, 0, 0, 0, 0, 0, 0, 0, 0, 0, 0, 0, 0, 0, 0, 0, 0, 0, 0, 0, 0, 0, 0, 0, 0, 0, 0, 0, 0, 0, 0, 0, 0, 0, 0, 0, 0, 0, 0, 0, 0, 0, 0, 0, 0, 0, 0, 0, 0, 0, 0, 0, 0, 0, 0, 0, 0, 0, 0, 0, 0, 0, 0, 0, 0, 0, 0, 0, 0, 0, 0, 0, 0, 0, 0, 0, 0, 0, 0, 0, 0, 0, 0, 0, 0, 0, 0, 0, 0, 0, 0, 0, 0, 0, 0, 0, 0, 0, 0, 0, 0, 0, 0, 0, 0, 0, 0, 0, 0, 0, 0, 0, 0, 0, 0, 0, 0, 0, 0, 0, 0, 0, 0, 0, 0, 0, 0, 0, 0, 0, 0, 0, 0, 0, 0, 0, 0, 0, 0, 0, 0, 0, 0, 0, 0, 0, 0, 0, 0, 0, 0, 0, 0, 0, 0, 0, 0, 0, 0, 0, 0, 0, 0, 0, 0, 0, 0, 0, 0, 0, 0, 0, 0, 0, 0, 0, 0, 0, 0, 0, 0, 0, 0, 0, 0, 0, 0, 0, 0, 0, 0, 0, 0, 0, 0, 0, 0, 0, 0, 0, 0, 0, 0, 0, 0, 0, 0, 0, 0, 0, 0, 0, 0, 0, 0, 0, 0, 0, 0, 0, 0, 0, 0, 0, 0, 0, 0, 0, 0, 0, 0, 0, 0, 0, 0, 0, 0, 0, 0, 0, 0, 0, 0, 0, 0, 0, 0, 0, 0, 0, 0, 0, 0, 0, 0, 0, 0, 0, 0, 0, 0, 0, 0, 0, 0, 0, 0, 0, 0, 0, 0, 0, 0, 0, 0, 0, 0, 0, 0, 0, 0, 0, 0, 0, 0, 0, 0, 0, 0, 0, 0, 0, 0, 0, 0, 0, 0, 0, 0, 0, 0, 0, 0, 0, 0, 0, 0, 0, 0, 0, 0, 0, 0, 0, 0, 0, 0, 0, 0, 0, 0, 0, 0, 0, 0, 0, 0, 0, 0, 0, 0, 0, 0, 0, 0, 0, 0, 0, 0, 0, 0, 0, 0, 0, 0, 0, 0, 0, 0, 0, 0, 0, 0, 0, 0, 0, 0, 0, 0, 0, 0, 0, 0, 0, 0, 0, 0, 0, 0, 0, 0, 0, 0, 0, 0, 0, 0, 0, 0, 0, 0, 0, 0, 0, 0, 0, 0, 0, 0, 0, 0, 0, 0, 0, 0, 0, 0, 0, 0, 0, 0, 0, 0, 0, 0, 0, 0, 0, 0, 0, 0, 0, 0, 0, 0, 0, 0, 0, 0, 0, 0, 0, 0, 0, 0, 0, 0, 0, 0, 0, 0, 0, 0, 0, 0, 0, 0, 0, 0, 0, 0, 0, 0, 0, 0, 0, 0, 0, 0, 0, 0, 0, 0, 0, 0, 0, 0, 0, 0, 0, 0, 0, 0, 0, 0, 0, 0, 0, 0, 0, 0, 0, 0, 0, 0, 0, 0, 0, 0, 0, 0, 0, 0, 0, 0, 0, 0, 0, 0, 0, 0, 0, 0, 0, 0, 0, 0, 0, 0, 0, 0, 0, 0, 0, 0, 0, 0, 0, 0, 0, 0, 0, 0, 0, 0, 0, 0, 0, 0, 0, 0, 0, 0, 0, 0, 0, 0, 0, 0, 0, 0, 0, 0, 0, 0, 0, 0, 0, 0, 0, 0, 0, 0, 0, 0, 0, 0, 0, 0, 0, 0, 0, 0, 0, 0, 0, 0, 0, 0, 0, 0, 0, 0, 0, 0, 0, 0, 0, 0, 0, 0, 0, 0, 0, 0, 0, 0, 0, 0, 0, 0, 0, 0, 0, 0, 0, 0, 0, 0, 0, 0, 0, 0, 0, 0, 0, 0, 0, 0, 0, 0, 0, 0, 0, 0, 0, 0, 0, 0, 0, 0, 0, 0, 0, 0, 0, 0, 0, 0, 0, 0, 0, 0, 0, 0, 0, 0, 0, 0, 0, 0, 0, 0, 0, 0, 0, 0, 0, 0, 0, 0, 0, 0, 0, 0, 0, 0, 0, 0, 0, 0, 0, 0, 0, 0, 0, 0, 0, 0, 0, 0, 0, 0, 0, 0, 0, 0, 0, 0, 0, 0, 0, 0, 0, 0, 0, 0, 0, 0, 0, 0, 0, 0, 0, 0, 0, 0, 0, 0, 0, 0, 0, 0, 0, 0, 0, 0, 0, 0, 0, 0, 0, 0, 0, 0, 0, 0, 0, 0, 0, 0, 0, 0, 0, 0, 0, 0, 0, 0, 0, 0, 0, 0, 0, 0, 0, 0, 0, 0, 0, 0, 0, 0, 0, 0, 0, 0, 0, 0, 0, 0, 0, 0, 0, 0, 0, 0, 0, 0, 0, 0, 0, 0, 0, 0, 0, 0, 0, 0, 0, 0, 0, 0, 0, 0, 0, 0, 0, 0, 0, 0, 0, 0, 0, 0, 0, 0, 0, 0, 0, 0, 0, 0, 0, 0, 0, 0, 0, 0, 0, 0, 0, 0, 0, 0, 0, 0, 0, 0, 0, 0, 0, 0, 0, 0, 0, 0, 0, 0, 0, 0, 0, 0, 0, 0, 0, 0, 0, 0, 0, 0, 0, 0, 0, 0, 0, 0, 0, 0, 0, 0, 0, 0, 0, 0, 0, 0, 0, 0, 0, 0, 0, 0, 0, 0, 0, 0, 0, 0, 0, 0, 0, 0, 0, 0, 0, 0, 0, 0, 0, 0, 0, 0, 0, 0, 0, 0, 0, 0, 0, 0, 0, 0, 0, 0, 0, 0, 0, 0, 0, 0, 0, 0, 0, 0, 0, 0, 0, 0, 0, 0, 0, 0, 0, 0, 0, 0, 0, 0, 0, 0, 0, 0, 0, 0, 0, 0, 0, 0, 0, 0, 0, 0, 0, 0, 0, 0, 0, 0, 0, 0, 0, 0, 0, 0, 0, 0, 0, 0, 0, 0, 0, 0, 0, 0, 0, 0, 0, 0, 0, 0, 0, 0, 0, 0, 0, 0, 0, 0, 0, 0, 0, 0, 0, 0, 0, 0, 0, 0, 0, 0, 0, 0, 0, 0, 0, 0, 0, 0, 0, 0, 0, 0, 0, 0, 0, 0, 0, 0, 0, 0, 0, 0, 0, 0, 0, 0, 0, 0, 0, 0, 0, 0, 0, 0, 0, 0, 0, 0, 0, 0, 0, 0, 0, 0, 0, 0, 0, 0, 0, 0, 0, 0, 0, 0, 0, 0, 0, 0, 0, 0, 0, 0, 0, 0, 0, 0, 0, 0, 0, 0, 0, 0, 0, 0, 0, 0, 0, 0, 0, 0, 0, 0, 0, 0, 0, 0, 0, 0, 0, 0, 0, 0, 0, 0, 0, 0, 0, 0, 0, 0, 0, 0, 0, 0, 0, 0, 0, 0, 0, 0, 0, 0, 0, 0, 0, 0, 0, 0, 0, 0, 0, 0, 0, 0, 0, 0, 0, 0, 0, 0, 0, 0, 0, 0, 0, 0, 0, 0, 0, 0, 0, 0, 0, 0, 0, 0, 0, 0, 0, 0, 0, 0, 0, 0, 0, 0, 0, 0, 0, 0, 0, 0, 0, 0, 0, 0, 0, 0, 0, 0, 0, 0, 0, 0, 0, 0, 0, 0, 0, 0, 0, 0, 0, 0, 0, 0, 0, 0, 0, 0, 0, 0, 0, 0, 0, 0, 0, 0, 0, 0, 0, 0, 0, 0, 0, 0, 0, 0, 0, 0, 0, 0, 0, 0, 0, 0, 0, 0, 0, 0, 0, 0, 0, 0, 0, 0, 0, 0, 0, 0, 0, 0, 0, 0, 0, 0, 0, 0, 0, 0, 0, 0, 0, 0, 0, 0, 0, 0, 0, 0, 0, 0, 0, 0, 0, 0, 0, 0, 0, 0, 0, 0, 0, 0, 0, 0, 0, 0, 0, 0, 0, 0, 0, 0, 0, 0, 0, 0, 0, 0, 0, 0, 0, 0, 0, 0, 0, 0, 0, 0, 0, 0, 0, 0, 0, 0, 0, 0, 0, 0, 0, 0, 0, 0, 0, 0, 0, 0, 0, 0, 0, 0, 0, 0, 0, 0, 0, 0, 0, 0, 0, 0, 0, 0, 0, 0, 0, 0, 0, 0, 0, 0, 0, 0, 0, 0, 0, 0, 0, 0, 0, 0, 0, 0, 0, 0, 0, 0, 0, 0, 0, 0, 0, 0, 0, 0, 0, 0, 0, 0, 0, 0, 0, 0, 0, 0, 0, 0, 0, 0, 0, 0, 0, 0, 0, 0, 0, 0, 0, 0, 0, 0, 0, 0, 0, 0, 0, 0, 0, 0, 0, 0, 0, 0, 0, 0, 0, 0, 0, 0, 0, 0, 0, 0, 0, 0, 0, 0, 0, 0, 0, 0, 0, 0, 0, 0, 0, 0, 0, 0, 0, 0, 0, 0, 0, 0, 0, 0, 0, 0, 0, 0, 0, 0, 0, 0, 0, 0, 0, 0, 0, 0, 0, 0, 0, 0, 0, 0, 0, 0, 0, 0, 0, 0, 0, 0, 0, 0, 0, 0, 0, 0, 0, 0, 0, 0, 0, 0, 0, 0, 0, 0, 0, 0, 0, 0, 0, 0, 0, 0, 0, 0, 0, 0, 0, 0, 0, 0, 0, 0, 0, 0, 0, 0, 0, 0, 0, 0, 0, 0, 0, 0, 0, 0, 0, 0, 0, 0, 0, 0, 0, 0, 0, 0, 0, 0, 0, 0, 0, 0, 0, 0, 0, 0, 0, 0, 0, 0, 0, 0, 0, 0, 0, 0, 0, 0, 0, 0, 0, 0, 0, 0, 0, 0, 0, 0, 0, 0, 0, 0, 0, 0, 0, 0, 0, 0, 0, 0, 0, 0, 0, 0, 0, 0, 0, 0, 0, 0, 0, 0, 0, 0, 0, 0, 0, 0, 0, 0, 0, 0, 0, 0, 0, 0, 0, 0, 0, 0, 0, 0, 0, 0, 0, 0, 0, 0, 0, 0, 0, 0, 0, 0, 0, 0, 0, 0, 0, 0, 0, 0, 0, 0, 0, 0, 0, 0, 0, 0, 0, 0, 0, 0, 0, 0, 0, 0, 0, 0, 0, 0, 0, 0, 0, 0, 0, 0, 0, 0, 0, 0, 0, 0, 0, 0, 0, 0, 0, 0, 0, 0, 0, 0, 0, 0, 0, 0, 0, 0, 0, 0, 0, 0, 0, 0, 0, 0, 0, 0, 0, 0, 0, 0, 0, 0, 0, 0, 0, 0, 0, 0, 0, 0, 0, 0, 0, 0, 0, 0, 0, 0, 0, 0, 0, 0, 0, 0, 0, 0, 0, 0, 0, 0, 0, 0, 0, 0, 0, 0, 0, 0, 0, 0, 0, 926, 927, 928, 0, 0, 0, 0, 0, 0, 0, 0, 0, 0, 0, 0, 0, 0, 0, 0, 0, 0, 0, 0, 0, 0, 0, 0, 0, 0, 0, 0, 0, 0, 0, 0, 0, 0, 0, 0, 0, 0, 0, 0, 0, 0, 0, 0, 0, 0, 0, 0, 0, 0, 0, 0, 0, 0, 0, 0, 0, 0, 0, 0, 0, 958, 959, 960, 0, 0, 0, 0, 0, 0, 0, 0, 0, 0, 0, 0, 0, 0, 0, 0, 0, 0, 0, 0, 0, 0, 0, 0, 0, 0, 0, 0, 0, 0, 0, 0, 0, 0, 0, 0, 0, 0, 0, 0, 0, 0, 0, 0, 0, 0, 0, 0, 0, 0, 0, 0, 0, 0, 0, 0, 0, 0, 0, 0, 0, 990, 991, 992, 0, 0, 0, 0, 0, 0, 0, 0, 0, 0, 0, 0, 0, 0, 0, 0, 0, 0, 0, 0, 0, 0, 0, 0, 0, 0, 0, 0, 0, 0, 0, 0, 0, 0, 0, 0, 0, 0, 0, 0, 0, 0, 0, 0, 0, 0, 0, 0, 0, 0, 0, 0, 0, 0, 0, 0, 0, 0, 0, 0, 0, 1022, 1023, 1024, 0, 0, 0, 0, 0, 0, 0, 0, 0, 0, 0, 0, 0, 0, 0, 0, 0, 0, 0, 0, 0, 0, 0, 0, 0, 0, 0, 0, 0, 0, 0, 0, 0, 0, 0, 0, 0, 0, 0, 0, 0, 0, 0, 0, 0, 0, 0, 0, 0, 0, 0, 0, 0, 0, 0, 0, 0, 0, 0, 0, 0, 0, 0, 0, 0, 0, 0, 0, 0, 0, 0, 0, 0, 0, 0, 0, 0, 0, 0, 0, 0, 0, 0, 0, 0, 0, 0, 0, 0, 0, 0, 0, 0, 0, 0, 0, 0, 0, 0, 0, 0, 0, 0, 0, 0, 0, 0, 0, 0, 0, 0, 0, 0, 0, 0, 0, 0, 0, 0, 0, 0, 0, 0, 0, 0, 926, 927, 928, 0, 0, 0, 0, 0, 0, 0, 0, 0, 0, 0, 0, 0, 0, 0, 0, 0, 0, 0, 0, 0, 0, 0, 0, 0, 0, 0, 0, 0, 0, 0, 0, 0, 0, 0, 0, 0, 0, 0, 0, 0, 0, 0, 0, 0, 0, 0, 0, 0, 0, 0, 0, 0, 0, 0, 0, 0, 0, 0, 0, 0, 958, 959, 960, 0, 0, 0, 0, 0, 0, 0, 0, 0, 0, 0, 0, 0, 0, 0, 0, 0, 0, 0, 0, 0, 0, 0, 0, 0, 0, 0, 0, 0, 0, 0, 0, 0, 0, 0, 0, 0, 0, 0, 0, 0, 0, 0, 0, 0, 0, 0, 0, 0, 0, 0, 0, 0, 0, 0, 0, 0, 0, 0, 0, 0, 990, 991, 992, 0, 0, 0, 0, 0, 0, 0, 0, 0, 0, 0, 0, 0, 0, 0, 0, 0, 0, 0, 0, 0, 0, 0, 0, 0, 0, 0, 0, 0, 0, 0, 0, 0, 0, 0, 0, 0, 0, 0, 0, 0, 0, 0, 0, 0, 0, 0, 0, 0, 0, 0, 0, 0, 0, 0, 0, 0, 0, 0, 0, 0, 1022, 1023, 1024, 0, 0, 0, 0, 0, 0, 0, 0, 0, 0, 0, 0, 0, 0, 0, 0, 0, 0, 0, 0, 0, 0, 0, 0, 0, 0, 0, 0, 0, 0, 0, 0, 0, 0, 0, 0, 0, 0, 0, 0, 0, 0, 0, 0, 0, 0, 0, 0, 0, 0, 0, 0, 0, 0, 0, 0, 0, 0, 0, 0, 0, 0, 0, 0, 0, 0, 0, 0, 0, 0, 0, 0, 0, 0, 0, 0, 0, 0, 0, 0, 0, 0, 0, 0, 0, 0, 0, 0, 0, 0, 0, 0, 0, 0, 0, 505, 506, 507, 505, 506, 507, 505, 506, 507, 0, 0, 0, 0, 0, 0, 0, 0, 0, 0, 0, 0, 0, 0, 0, 0, 0, 0, 0, 0, 0, 926, 927, 928, 0, 0, 0, 0, 0, 0, 0, 0, 0, 0, 0, 0, 0, 0, 0, 0, 0, 0, 0, 0, 0, 0, 0, 0, 0, 0, 0, 0, 0, 0, 0, 537, 538, 539, 537, 538, 539, 537, 538, 539, 0, 0, 0, 0, 0, 0, 0, 0, 0, 0, 0, 0, 0, 0, 0, 0, 0, 0, 0, 0, 0, 958, 959, 960, 0, 0, 0, 0, 0, 0, 0, 0, 0, 0, 0, 0, 0, 0, 0, 0, 0, 0, 0, 0, 0, 0, 0, 0, 0, 0, 0, 0, 0, 0, 0, 569, 570, 571, 569, 570, 571, 569, 570, 571, 0, 0, 0, 0, 0, 0, 0, 0, 0, 0, 0, 0, 0, 0, 0, 0, 0, 0, 0, 0, 0, 990, 991, 992, 0, 0, 0, 0, 0, 0, 0, 0, 0, 0, 0, 0, 0, 0, 0, 0, 0, 0, 0, 0, 0, 0, 0, 0, 0, 0, 0, 0, 0, 0, 0, 0, 0, 0, 0, 0, 0, 0, 0, 0, 0, 0, 0, 0, 0, 0, 0, 0, 0, 0, 0, 0, 0, 0, 0, 0, 0, 0, 0, 0, 0, 1022, 1023, 1024, 0, 0, 0, 0, 0, 0, 0, 0, 0, 0, 0, 0, 0, 0, 0, 0, 0, 0, 0, 0, 0, 0, 0, 0, 0, 0, 0, 0, 0, 0, 0, 0, 0, 0, 0, 0, 0, 0, 0, 0, 0, 0, 0, 0, 0, 0, 0, 0, 0, 0, 0, 0, 0, 0, 0, 0, 0, 0, 0, 0, 0, 0, 0, 0, 0, 0, 0, 0, 0, 0, 0, 0, 0, 0, 0, 0, 0, 0, 0, 0, 0, 0, 0, 0, 0, 0, 0, 0, 0, 0, 0, 0, 0, 0, 0, 0, 0, 0, 0, 0, 0, 0, 0, 0, 0, 0, 0, 0, 0, 0, 0, 0, 0, 0, 0, 0, 0, 0, 0, 0, 0, 0, 0, 0, 0, 0, 0, 0, 0, 0, 0, 0, 0, 0, 0, 0, 0, 0, 0, 0, 0, 0, 0, 0, 0, 0, 0, 0, 0, 0, 0, 0, 0, 0, 0, 0, 0, 0, 0, 0, 0, 0, 0, 0, 0, 0, 0, 0, 0, 0, 0, 0, 0, 0, 0, 0, 0, 0, 0, 0, 0, 0, 0, 0, 0, 0, 0, 0, 0, 0, 0, 0, 0, 0, 0, 0, 0, 0, 0, 0, 0, 0, 0, 0, 0, 0, 0, 0, 0, 0, 0, 0, 0, 0, 0, 0, 0, 0, 0, 0, 0, 0, 0, 0, 0, 0, 0, 0, 0, 0, 0, 0, 0, 0, 0, 0, 0, 0, 0, 0, 0, 0, 0, 0, 0, 0, 0, 0, 0, 0, 0, 0, 0, 0, 0, 0, 0, 0, 0, 0, 0, 0, 0, 0, 0, 0, 0, 0, 0, 0, 0, 0, 0, 0, 0, 0, 0, 0, 0, 0, 0, 0, 0, 0, 0, 0, 0, 0, 0, 0, 0, 0, 0, 0, 0, 0, 0, 0, 0, 0, 0, 0, 0, 0, 0, 0, 0, 0, 0, 0, 0, 0, 0, 0, 0, 0, 0, 0, 0, 0, 0, 0, 409, 410, 411, 0, 409, 410, 411, 0, 409, 410, 411, 0, 0, 0, 0, 0, 0, 0, 0, 0, 0, 0, 0, 0, 0, 0, 0, 0, 0, 0, 0, 0, 0, 0, 0, 0, 0, 0, 0, 0, 0, 0, 0, 0, 0, 0, 0, 0, 0, 0, 0, 0, 0, 0, 0, 0, 0, 0, 0, 0, 0, 0, 0, 0, 441, 442, 443, 0, 441, 442, 443, 0, 441, 442, 443, 0, 0, 0, 0, 0, 0, 0, 0, 0, 0, 0, 0, 0, 0, 0, 0, 0, 0, 0, 0, 0, 0, 0, 0, 0, 0, 0, 0, 0, 0, 0, 0, 0, 0, 0, 0, 0, 0, 0, 0, 0, 0, 0, 0, 0, 0, 0, 0, 0, 0, 0, 0, 0, 473, 474, 475, 0, 473, 474, 475, 0, 473, 474, 475, 0, 0, 0, 0, 0, 0, 0, 0, 0, 0, 0, 0, 0, 0, 0, 0, 0, 0, 0, 0, 0, 0, 0, 0, 0, 0, 0, 0, 0, 0, 0, 0, 0, 0, 0, 0, 0, 0, 0, 0, 0, 0, 0, 0, 0, 0, 0, 0, 0, 0, 0, 0, 0, 0, 0, 0, 0, 0, 0, 0, 0, 0, 0, 0, 0, 0, 0, 0, 0, 0, 0, 0, 0, 0, 0, 0, 0, 0, 0, 0, 0, 0, 0, 0, 0, 0, 0, 0, 0, 0, 0, 0, 0, 0, 0, 0, 0, 0, 0, 0, 0, 0, 0, 0, 0, 0, 0, 0, 0, 0, 0, 0, 0, 0, 0, 0, 0, 0, 0, 0, 0, 0, 0, 0, 0, 0, 0, 0, 0, 0, 0, 0, 0, 0, 0, 0, 0, 0, 0, 0, 0, 0, 0, 0, 0, 0, 0, 0, 0, 0, 0, 0, 0, 0, 0, 0, 0, 0, 0, 0, 0, 0, 0, 0, 0, 0, 0, 0, 0, 0, 0, 0, 0, 0, 0, 0, 0, 0, 0, 0, 0, 0, 0, 0, 0, 0, 0, 0, 0, 0, 0, 0, 0, 0, 0, 0, 0, 0, 0, 0, 0, 0, 0, 0, 0, 0, 0, 0, 0, 0, 0, 0, 0, 0, 0, 0, 0, 0, 0, 0, 0, 0, 0, 0, 0, 0, 0, 0, 0, 0, 0, 0, 0, 0, 0, 0, 0, 0, 0, 0, 0, 0, 0, 0, 0, 0, 0, 0, 0, 0, 0, 0, 0, 0, 0, 0, 0, 0, 0, 0, 0, 0, 0, 0, 0, 0, 0, 0, 0, 0, 0, 0, 0, 0, 0, 0, 0, 0, 0, 0, 0, 0, 0, 0, 0, 0, 0, 0, 0, 0, 0, 0, 0, 0, 0, 0, 0, 0, 0, 0, 0, 0],
         "height":64,
         "name":"TempDeco",
         "opacity":1,
         "type":"tilelayer",
         "visible":true,
         "width":64,
         "x":0,
         "y":0
        }],
 "orientation":"orthogonal",
 "properties":
    {

    },
 "tileheight":64,
 "tilesets":[
        {
         "firstgid":1,
         "image":"..\/Documents\/java projects\/LakesEntrance\/hosp\/Hosp-android\/assets\/data\/tileset.png",
         "imageheight":2048,
         "imagewidth":2048,
         "margin":0,
         "name":"tileset",
         "properties":
            {

            },
         "spacing":0,
         "tileheight":64,
         "tilewidth":64
        }, 
        {
         "firstgid":1025,
         "image":"..\/Documents\/java projects\/LakesEntrance\/hosp\/Hosp-android\/assets\/data\/objects.png",
         "imageheight":2048,
         "imagewidth":2048,
         "margin":0,
         "name":"objects",
         "properties":
            {

            },
         "spacing":0,
         "tileheight":64,
         "tilewidth":64
        }, 
        {
         "firstgid":2049,
         "image":"..\/Documents\/java projects\/LakesEntrance\/hosp\/Hosp-android\/assets\/data\/objects.png",
         "imageheight":2048,
         "imagewidth":2048,
         "margin":0,
         "name":"objects",
         "properties":
            {

            },
         "spacing":0,
         "tileheight":32,
         "tilewidth":32,
         "transparentcolor":"#ffffff"
        }],
 "tilewidth":64,
 "version":1,
 "width":64
}